C:\Users\resta\TechU\apipractitioner\src\test\java\net\techu\api\ProductosControllerTest.java
C:\Users\resta\TechU\apipractitioner\src\test\java\net\techu\api\ApiApplicationTests.java
C:\Users\resta\TechU\apipractitioner\src\test\java\net\techu\api\HolaControllerTest.java
